{
  "project_info": {
    "project_number": "1058080284995",
    "firebase_url": "https://scsc-veteran-dev-640ee-default-rtdb.firebaseio.com",
    "project_id": "scsc-veteran-dev-640ee",
    "storage_bucket": "scsc-veteran-dev-640ee.appspot.com"
  },
  "client": [
    {
      "client_info": {
        "mobilesdk_app_id": "1:1058080284995:android:9a1c254e9fb620b726cff6",
        "android_client_info": {
          "package_name": "fr.scsc_veteran"
        }
      },
      "oauth_client": [
        {
          "client_id": "1058080284995-0hk2105aftoh06lis2o6p8430953jemp.apps.googleusercontent.com",
          "client_type": 3
        }
      ],
      "api_key": [
        {
          "current_key": "AIzaSyD4GsYuIkoY3B8sIZpWhbaFHX8ez2B6d7c"
        }
      ],
      "services": {
        "appinvite_service": {
          "other_platform_oauth_client": [
            {
              "client_id": "1058080284995-0hk2105aftoh06lis2o6p8430953jemp.apps.googleusercontent.com",
              "client_type": 3
            }
          ]
        }
      }
    }
  ],
  "configuration_version": "1"
}